Blood volumes
…
blood_volumes |> 
  filter(country == "Bangladesh") |> 
  select(age, culture)

# A tibble: 344 × 2
     age culture
   <dbl> <lgl>  
 1    55 FALSE  
 2    20 FALSE  
 3    70 TRUE   
 4    31 FALSE  
 5    80 FALSE  
 6    16 FALSE  
 7    31 FALSE  
 8    34 FALSE  
 9    45 FALSE  
10    89 FALSE  
# ℹ 334 more rows
