Classification workflow
…
volumes_bangladesh |> 
  arrange(BC_Vol)

# A tibble: 344 × 2
   BC_Vol BC_result
    <dbl> <lgl>    
 1  0.800 FALSE    
 2  0.900 FALSE    
 3  0.900 FALSE    
 4  1     FALSE    
 5  1     FALSE    
 6  1     FALSE    
 7  1.20  FALSE    
 8  1.20  TRUE     
 9  1.20  FALSE    
10  1.30  FALSE    
# ℹ 334 more rows
…
