Clinical score
…
filter(out_parallel, j == max(j))

# A tibble: 1 × 6
   temp pulse coeffs         n     t     j
  <dbl> <dbl> <list>     <int> <int> <dbl>
1  35.5   120 <dbl [12]>    12     6 0.306

Let’s compare the first best models:

arrange(out_serial, desc(j))

# A tibble: 120 × 6
    temp pulse coeffs         n     t     j
   <dbl> <dbl> <list>     <int> <int> <dbl>
 1  36.5   130 <dbl [12]>     7     3 0.297
 2  39.5   110 <dbl [12]>    14     7 0.297
 3  37.5    60 <dbl [12]>    13     2 0.296
 4  42     120 <dbl [12]>    12     7 0.295
 5  41     120 <dbl [12]>    12     7 0.294
 6  38     110 <dbl [12]>    13     6 0.293
 7  39     120 <dbl [12]>    10     8 0.291
 8  36.5    70 <dbl [12]>    15     2 0.291
 9  37      80 <dbl [12]>    10     0 0.291
10  39      80 <dbl [12]>    15     8 0.290
# ℹ 110 more rows

arrange(out_parallel, desc(j))

# A tibble: 120 × 6
    temp pulse coeffs         n     t     j
   <dbl> <dbl> <list>     <int> <int> <dbl>
 1  35.5   120 <dbl [12]>    12     6 0.306
 2  36     120 <dbl [12]>    13     8 0.305
 3  41.5   130 <dbl [12]>    13     6 0.292
 4  37.5   120 <dbl [12]>    13     6 0.292
 5  40.5    70 <dbl [12]>    11     4 0.291
 6  41.5    80 <dbl [12]>    14     5 0.291
 7  35.5    70 <dbl [12]>    13     4 0.290
 8  36      80 <dbl [12]>    14     5 0.290
 9  38.5   120 <dbl [12]>    12     9 0.289
10  36     130 <dbl [12]>     7     3 0.288
# ℹ 110 more rows
…
