Logistic regression
…
model <- logistic_reg() |> 
  set_engine("glm") |> 
  set_mode("classification")

model <- logistic_reg("classification", "glm")

the_recipe <- recipe(culture ~ ., training_data)

the_workflow <- workflow(the_recipe, model)

fitted_model <- fit(the_workflow, training_data)

predict(fitted_model, testing_data)

# A tibble: 151 × 1
   .pred_class
   <fct>      
 1 FALSE      
 2 FALSE      
 3 FALSE      
 4 FALSE      
 5 FALSE      
 6 FALSE      
 7 FALSE      
 8 FALSE      
 9 FALSE      
10 FALSE      
# ℹ 141 more rows
…
augment(fitted_model, testing_data) |> 
  specificity(truth = culture, estimate = .pred_class)

# A tibble: 1 × 3
  .metric     .estimator .estimate
  <chr>       <chr>          <dbl>
1 specificity binary          0.42

augment(fitted_model, testing_data) |> 
  roc_curve(truth = culture, .pred_FALSE)

# A tibble: 150 × 3
   .threshold specificity sensitivity
        <dbl>       <dbl>       <dbl>
 1  -Inf           0            1    
 2     0.0286      0            1    
 3     0.0555      0.0200       1    
 4     0.0689      0.0200       0.990
 5     0.0815      0.0400       0.990
 6     0.0954      0.0600       0.990
 7     0.107       0.0800       0.990
 8     0.123       0.1          0.990
 9     0.123       0.1          0.980
10     0.165       0.1          0.969
# ℹ 140 more rows
…
